{
	        "rabbitmq" : {
	                "type" : "#mosaic-components:rabbitmq",
	                "configuration" : null,
	                "annotation": null,
	                "count" : 1,
	                "order" : 1,
	                "delay" : 10000
	        },
        	
        	"rabbitmq-driver" : {
	                "type" : "#mosaic-components:java-driver-amqp",
	                "configuration" : null,
	                "annotation": null,
	                "count" : 1,
	                "order" : 2,
	                "delay" : 10000
	        },
        	
        	
			"riak" : {
                "type" : "#mosaic-components:riak-kv",
                "configuration" : null,
                "annotation" : null,
                "count" : 1,
                "order" : 3, 
                "delay" : 10000
        	},
        	
        	"riak-driver" : {
                "type" : "#mosaic-components:java-driver-riak",
                "configuration" : null,
                "annotation": null,
                "count" : 1,
                "order" : 4,
                "delay" : 10000
        	}  ,
        
        	"mHTTPgw":{
    		    "type":"#mosaic-tests:exec",
    		    "configuration":["/opt/mosaic-component-mhttpgw-0.2.1/bin/mosaic-component-mhttpgw--run-mhttpgw",[]],
    		    "annotation":null,
    		    "count":1,
    		    "order":5,
    		    "delay":10000
    		},
    		
    		 "frontend" : {
                "type" : "#mosaic-components:java-cloudlet-container",
                "configuration" : ["cloudlets/mhttpgw-frontend.properties","http://deal.ing.unisannio.it/provisioning_system-mosaic-0.6.0-jar-with-dependencies.jar"],
                "annotation": null,
                "count" : 1,
                "order" : 6,
                "delay" : 10000
           },
    		
    		 "startup" : {
                "type" : "#mosaic-components:java-cloudlet-container",
                "configuration" : ["cloudlets/startup-configuration.properties","http://deal.ing.unisannio.it/provisioning_system-mosaic-0.6.0-jar-with-dependencies.jar"],
                "annotation": null,
                "count" : 1,
                "order" : 7,
                "delay" : 10000
           },
        
           
           "cluster" : {
                "type" : "#mosaic-components:java-cloudlet-container",
                "configuration" : ["cloudlets/mpi-cloudlet.properties","http://deal.ing.unisannio.it/provisioning_system-mosaic-0.6.0-jar-with-dependencies.jar"],
                "annotation": null,
                "count" : 1,
                "order" : 8,
                "delay" : 10000
           },
           
           "stub" : {
                "type" : "#mosaic-components:java-cloudlet-container",
                "configuration" : ["cloudlets/manage-cluster-cloudlet.properties","http://deal.ing.unisannio.it/provisioning_system-mosaic-0.6.0-jar-with-dependencies.jar"],
                "annotation": null,
                "count" : 1,
                "order" : 9,
                "delay" : 10000
           }
         
}











